<?xml version="1.0" encoding="UTF-8"?>
<testsuite name="Berry" tests="2" skipped="0" failures="0" errors="0" timestamp="2020-02-10T14:25:56" hostname="dbc-000486" time="3.865">
  <properties/>
  <testcase name="consulta todas as berries" classname="Berry" time="3.47"/>
  <testcase name="consulta berry com id específico" classname="Berry" time="0.395"/>
  <system-out><![CDATA[
@Berry
Cenário: consulta todas as berries                   ?[90m# co/pokemon/test/Berry.feature:5?[0m
  ?[32mDado ?[0m?[32mque eu acesso a PokeApi?[0m                       ?[90m# co.pokemon.test.StepDefinitions.euAcessarAPokeApi()?[0m
  ?[32mQuando ?[0m?[32mconsultar todas as berries?[0m                  ?[90m# co.pokemon.test.StepDefinitions.consultarTodasAsBerries()?[0m
{
    "count": 64,
    "next": "https://pokeapi.co/api/v2/berry/?offset=20&limit=20",
    "previous": null,
    "results": [
        {
            "name": "cheri",
            "url": "https://pokeapi.co/api/v2/berry/1/"
        },
        {
            "name": "chesto",
            "url": "https://pokeapi.co/api/v2/berry/2/"
        },
        {
            "name": "pecha",
            "url": "https://pokeapi.co/api/v2/berry/3/"
        },
        {
            "name": "rawst",
            "url": "https://pokeapi.co/api/v2/berry/4/"
        },
        {
            "name": "aspear",
            "url": "https://pokeapi.co/api/v2/berry/5/"
        },
        {
            "name": "leppa",
            "url": "https://pokeapi.co/api/v2/berry/6/"
        },
        {
            "name": "oran",
            "url": "https://pokeapi.co/api/v2/berry/7/"
        },
        {
            "name": "persim",
            "url": "https://pokeapi.co/api/v2/berry/8/"
        },
        {
            "name": "lum",
            "url": "https://pokeapi.co/api/v2/berry/9/"
        },
        {
            "name": "sitrus",
            "url": "https://pokeapi.co/api/v2/berry/10/"
        },
        {
            "name": "figy",
            "url": "https://pokeapi.co/api/v2/berry/11/"
        },
        {
            "name": "wiki",
            "url": "https://pokeapi.co/api/v2/berry/12/"
        },
        {
            "name": "mago",
            "url": "https://pokeapi.co/api/v2/berry/13/"
        },
        {
            "name": "aguav",
            "url": "https://pokeapi.co/api/v2/berry/14/"
        },
        {
            "name": "iapapa",
            "url": "https://pokeapi.co/api/v2/berry/15/"
        },
        {
            "name": "razz",
            "url": "https://pokeapi.co/api/v2/berry/16/"
        },
        {
            "name": "bluk",
            "url": "https://pokeapi.co/api/v2/berry/17/"
        },
        {
            "name": "nanab",
            "url": "https://pokeapi.co/api/v2/berry/18/"
        },
        {
            "name": "wepear",
            "url": "https://pokeapi.co/api/v2/berry/19/"
        },
        {
            "name": "pinap",
            "url": "https://pokeapi.co/api/v2/berry/20/"
        }
    ]
}
{
    "count": 64,
    "next": "https://pokeapi.co/api/v2/berry/?offset=20&limit=20",
    "previous": null,
    "results": [
        {
            "name": "cheri",
            "url": "https://pokeapi.co/api/v2/berry/1/"
        },
        {
            "name": "chesto",
            "url": "https://pokeapi.co/api/v2/berry/2/"
        },
        {
            "name": "pecha",
            "url": "https://pokeapi.co/api/v2/berry/3/"
        },
        {
            "name": "rawst",
            "url": "https://pokeapi.co/api/v2/berry/4/"
        },
        {
            "name": "aspear",
            "url": "https://pokeapi.co/api/v2/berry/5/"
        },
        {
            "name": "leppa",
            "url": "https://pokeapi.co/api/v2/berry/6/"
        },
        {
            "name": "oran",
            "url": "https://pokeapi.co/api/v2/berry/7/"
        },
        {
            "name": "persim",
            "url": "https://pokeapi.co/api/v2/berry/8/"
        },
        {
            "name": "lum",
            "url": "https://pokeapi.co/api/v2/berry/9/"
        },
        {
            "name": "sitrus",
            "url": "https://pokeapi.co/api/v2/berry/10/"
        },
        {
            "name": "figy",
            "url": "https://pokeapi.co/api/v2/berry/11/"
        },
        {
            "name": "wiki",
            "url": "https://pokeapi.co/api/v2/berry/12/"
        },
        {
            "name": "mago",
            "url": "https://pokeapi.co/api/v2/berry/13/"
        },
        {
            "name": "aguav",
            "url": "https://pokeapi.co/api/v2/berry/14/"
        },
        {
            "name": "iapapa",
            "url": "https://pokeapi.co/api/v2/berry/15/"
        },
        {
            "name": "razz",
            "url": "https://pokeapi.co/api/v2/berry/16/"
        },
        {
            "name": "bluk",
            "url": "https://pokeapi.co/api/v2/berry/17/"
        },
        {
            "name": "nanab",
            "url": "https://pokeapi.co/api/v2/berry/18/"
        },
        {
            "name": "wepear",
            "url": "https://pokeapi.co/api/v2/berry/19/"
        },
        {
            "name": "pinap",
            "url": "https://pokeapi.co/api/v2/berry/20/"
        }
    ]
}
  ?[32mEntão ?[0m?[32mo sistema deve retornar uma lista de berries?[0m ?[90m# co.pokemon.test.StepDefinitions.oSistemaDeveRetornarUmaListaDeBerries()?[0m

@Berry
Esquema do Cenário: consulta berry com id específico             ?[90m# co/pokemon/test/Berry.feature:16?[0m
  ?[32mDado ?[0m?[32mque eu acesso a PokeApi?[0m                                   ?[90m# co.pokemon.test.StepDefinitions.euAcessarAPokeApi()?[0m
  ?[32mQuando ?[0m?[32mconsultar a berry de id ?[0m?[32m?[1m1?[0m                               ?[90m# co.pokemon.test.StepDefinitions.consultarABerryDeIdId(int)?[0m
  ?[32mEntão ?[0m?[32mo sistema deve retornar informações de uma berry de id ?[0m?[32m?[1m1?[0m ?[90m# co.pokemon.test.StepDefinitions.oSistemaDeveRetornarInformaçõesDeUmaBerrydeId(int)?[0m
]]></system-out>
  <system-err><![CDATA[]]></system-err>
</testsuite>
